{
  "type": "service_account",
  "project_id": "chicago-traffic-polling-flex",
  "private_key_id": "a9ef77ba039d4f9af029929b1f8329d308deb151",
  "private_key": "-----BEGIN PRIVATE KEY-----\nMIIEvAIBADANBgkqhkiG9w0BAQEFAASCBKYwggSiAgEAAoIBAQCwT6q0Anb8rDTb\nv+0O3PRbmbY9yNXixt5rNj3DRJouC1x4S7aei5R8x4b6mwYXvhknwladUXMf9X2i\nM9SH6pKlz0ayQ4xt+JuyCQDXz/KqCpAsoS2rEkR/iMFLnneuNBRHQuCfhpf+tMzE\nqNt9f+nI1WcEVI0G8sa7O5BJxk+hPL1INyoTUcVK6JimOHQ269YHTTp0CdV2E5TS\nRRQxWJyQWRxzBpqBzPXoDATBvE3QvJmhfN/NNCXHiG0coLGWG426rR0dSu+4nne+\nnln5HoiWB5CuXwHESbEVQ6vPYBu1haajoKtaJjZyy2dlkrkQH8dGb0ECj3rnmnaL\nAdPe6xifAgMBAAECggEAHWBQwWhtueDZd8nNLj5Lap28WyQE2yGmeneRp+DczZIw\nCI0Y8uavyXCXQVcmFzuhxlmfg9vH0kndcnKvVSwU3hKgpWAS3FnhWzMb1Fl+Ba33\n4q/CQ7AqAJPhHP/c0gY0YME4WuwalCI8wgGefJUc90zzOqn5y3AVA6pDer9Tkjoc\n3gFU31ZvT0g7G2boymRT36uxJYwDyJpCuLJND3VE5+Q8P9Nwhg4sPqoFJgk08Vvq\nb+Nll72ULr6W1G6i6puQwj+3El4gRKFnDEBphkGxo+Z/7fnbV5saeKEWUMV+EgEH\n7eG7TFLxKWjXX8+8ojodlFeY1a4xFC+IUPaeo1c7OQKBgQDsaw6eE5IYfC/YVcaF\nk6Dg6Z4PCsg3M41dHGJB9MDe69eDawdEgfBthIbri/VVED2+KRzWvioZaxPfF0LU\nHhzi1b/DjaD//mxM+OBSWoJjO5rim9JyjCZugx1aTG7GKKFWrgjU/bfMZGfRJgWu\nXYAd39zWJ/L7KbDqwn3r9qhYWQKBgQC+6h5Q+VpbZ2DWdEp+jiquIGz6mDMiM5zY\nchKnPtjuTCcxefGo4ws3DXYfOOMR9vi/vX4paJ2qx0XaG+K9PSNobBuKEMRU3ynj\nFn9DTgba5FUTVzXv4Ykoq9TfzFnvQ1I+hNKAorww6gne4waCCrKz+ZxFhi0S6pIx\nSdLjKSVZtwKBgFHUjG6yn3LSKU1cAybg/mJa+laCiOJyeY+s72Wc7dU7FJFsTkus\nHigKIxkMjJIw2O4lFNJPaAr8QRiK2JrLAXySN5ncP8nbqmjKC/r1UQQ/8VBWVvVH\nBVZjE5nZss3r6kwyWORAHYolhrmhy32a52lvvuRxV20P9SiMwUEXUxWhAoGAGKu+\ncS5X69nnHK94dPRANbJBAv0qFnBfA2VyXaR0eg7jPbSJcw6sA1g8/HnodgjZSkXd\niNJZFZmcwDu8SEIfUj4uLOBPzrvr+MmOdo8duamqCM7LTI1zoQrbfnQ05wNnHGcj\noLXm5ddIoUHrNGDXiQRnmmBlcL1ZWP82Pl6x0e8CgYBQ+OzZ9RUBw2OoqL44bkYc\n6mhW5I+guGcTVq/E4CyhcBLydKLySNrHkXlR4Wkzkqqnfs0Nozr8iiq3ukC5pIUA\nqLU6MowLQyhtBG0Gktuv+TZIFZ879YfOHWJwF9bV+ILQ9pv+63Jnx/c5TMQFVgoU\nSolHbb5FuHFZP3DQVaizbw==\n-----END PRIVATE KEY-----\n",
  "client_email": "macbook-traffic-flex@chicago-traffic-polling-flex.iam.gserviceaccount.com",
  "client_id": "116506771231469687780",
  "auth_uri": "https://accounts.google.com/o/oauth2/auth",
  "token_uri": "https://accounts.google.com/o/oauth2/token",
  "auth_provider_x509_cert_url": "https://www.googleapis.com/oauth2/v1/certs",
  "client_x509_cert_url": "https://www.googleapis.com/robot/v1/metadata/x509/macbook-traffic-flex%40chicago-traffic-polling-flex.iam.gserviceaccount.com"
}
